dataset,model,layer,F1
ORKG,SciBERT,1,0.601
ORKG,SciBERT,2,0.589
ORKG,SciBERT,3,0.616
ORKG,SciBERT,4,0.577
ORKG,SciBERT,5,0.599
ORKG,SciBERT,6,0.618
ORKG,SciBERT,7,0.623
ORKG,SciBERT,8,0.621
ORKG,SciBERT,9,0.628
ORKG,SciBERT,10,0.644
ORKG,SciBERT,11,0.623
ORKG,SciBERT,12,0.613
CS-KG,SciBERT,1,0.897
CS-KG,SciBERT,2,0.902
CS-KG,SciBERT,3,0.895
CS-KG,SciBERT,4,0.884
CS-KG,SciBERT,5,0.875
CS-KG,SciBERT,6,0.859
CS-KG,SciBERT,7,0.813
CS-KG,SciBERT,8,0.788
CS-KG,SciBERT,9,0.786
CS-KG,SciBERT,10,0.766
CS-KG,SciBERT,11,0.791
CS-KG,SciBERT,12,0.782
SemEval-17,SciBERT,1,0.573
SemEval-17,SciBERT,2,0.570
SemEval-17,SciBERT,3,0.576
SemEval-17,SciBERT,4,0.568
SemEval-17,SciBERT,5,0.561
SemEval-17,SciBERT,6,0.559
SemEval-17,SciBERT,7,0.556
SemEval-17,SciBERT,8,0.554
SemEval-17,SciBERT,9,0.561
SemEval-17,SciBERT,10,0.553
SemEval-17,SciBERT,11,0.561
SemEval-17,SciBERT,12,0.572
SciERC,SciBERT,1,0.713
SciERC,SciBERT,2,0.731
SciERC,SciBERT,3,0.702
SciERC,SciBERT,4,0.701
SciERC,SciBERT,5,0.695
SciERC,SciBERT,6,0.686
SciERC,SciBERT,7,0.682
SciERC,SciBERT,8,0.673
SciERC,SciBERT,9,0.674
SciERC,SciBERT,10,0.67
SciERC,SciBERT,11,0.681
SciERC,SciBERT,12,0.681
ORKG,RoBERTa,1,0.598
ORKG,RoBERTa,2,0.582
ORKG,RoBERTa,3,0.584
ORKG,RoBERTa,4,0.593
ORKG,RoBERTa,5,0.593
ORKG,RoBERTa,6,0.589
ORKG,RoBERTa,7,0.587
ORKG,RoBERTa,8,0.578
ORKG,RoBERTa,9,0.571
ORKG,RoBERTa,10,0.579
ORKG,RoBERTa,11,0.582
ORKG,RoBERTa,12,0.604
CS-KG,RoBERTa,1,0.899
CS-KG,RoBERTa,2,0.902
CS-KG,RoBERTa,3,0.897
CS-KG,RoBERTa,4,0.88
CS-KG,RoBERTa,5,0.868
CS-KG,RoBERTa,6,0.854
CS-KG,RoBERTa,7,0.842
CS-KG,RoBERTa,8,0.813
CS-KG,RoBERTa,9,0.807
CS-KG,RoBERTa,10,0.799
CS-KG,RoBERTa,11,0.807
CS-KG,RoBERTa,12,0.793
SemEval-17,RoBERTa,1,0.573
SemEval-17,RoBERTa,2,0.57
SemEval-17,RoBERTa,3,0.573
SemEval-17,RoBERTa,4,0.556
SemEval-17,RoBERTa,5,0.552
SemEval-17,RoBERTa,6,0.557
SemEval-17,RoBERTa,7,0.554
SemEval-17,RoBERTa,8,0.553
SemEval-17,RoBERTa,9,0.562
SemEval-17,RoBERTa,10,0.558
SemEval-17,RoBERTa,11,0.556
SemEval-17,RoBERTa,12,0.561
SciERC,RoBERTa,1,0.657
SciERC,RoBERTa,2,0.681
SciERC,RoBERTa,3,0.677
SciERC,RoBERTa,4,0.684
SciERC,RoBERTa,5,0.673
SciERC,RoBERTa,6,0.667
SciERC,RoBERTa,7,0.659
SciERC,RoBERTa,8,0.643
SciERC,RoBERTa,9,0.644
SciERC,RoBERTa,10,0.639
SciERC,RoBERTa,11,0.639
SciERC,RoBERTa,12,0.634
ORKG,BART,1,0.618
ORKG,BART,2,0.604
ORKG,BART,3,0.611
ORKG,BART,4,0.597
ORKG,BART,5,0.605
ORKG,BART,6,0.597
CS-KG,BART,1,0.789
CS-KG,BART,2,0.784
CS-KG,BART,3,0.765
CS-KG,BART,4,0.752
CS-KG,BART,5,0.803
CS-KG,BART,6,0.874
SemEval-17,BART,1,0.573
SemEval-17,BART,2,0.572
SemEval-17,BART,3,0.568
SemEval-17,BART,4,0.559
SemEval-17,BART,5,0.565
SemEval-17,BART,6,0.562
SciERC,BART,1,0.668
SciERC,BART,2,0.651
SciERC,BART,3,0.65
SciERC,BART,4,0.642
SciERC,BART,5,0.644
SciERC,BART,6,0.663
ORKG,GPT-3,,0.698
CS-KG,GPT-3,,0.914
SemEval-17,GPT-3,,0.597
SciERC,GPT-3,,0.816
